;;;Rural/Urban;;Mud;;;Wood, Bamboo;;;Brick;;;Stone;;;Cement;;;Mosaic, Floor tiles;;;Any other material;;;CONCATENATION DES CHAMPS
(';STATE - ANDHRA PRADESH  28;',';Rural;',';7 997 880;7997880;',';45 420;45420;',';94 488;94488;',';3 829 081;3829081;',';2 931 084;2931084;',';84 033;84033;',';48 655;48655;'),;('STATE - ANDHRA PRADESH  28','Rural','7997880','45420','94488','3829081','2931084','84033','48655'),
(';STATE - ANDHRA PRADESH  28;',';Urban;',';496 367;496367;',';10 447;10447;',';28 101;28101;',';2 362 869;2362869;',';1 558 039;1558039;',';473 033;473033;',';50 847;50847;'),;('STATE - ANDHRA PRADESH  28','Urban','496367','10447','28101','2362869','1558039','473033','50847'),
(';STATE - ARUNACHAL PRADESH  12;',';Rural;',';62 617;62617;',';116 707;116707;',';292;292;',';401;401;',';37 272;37272;',';89;89;',';388;388;'),;('STATE - ARUNACHAL PRADESH  12','Rural','62617','116707','292','401','37272','89','388'),
(';STATE - ARUNACHAL PRADESH  12;',';Urban;',';20 571;20571;',';10 794;10794;',';309;309;',';377;377;',';33 669;33669;',';147;147;',';127;127;'),;('STATE - ARUNACHAL PRADESH  12','Urban','20571','10794','309','377','33669','147','127'),
(';STATE - ASSAM  18;',';Rural;',';4 536 303;4536303;',';190 347;190347;',';49 671;49671;',';19 399;19399;',';387 350;387350;',';8 810;8810;',';2 410;2410;'),;('STATE - ASSAM  18','Rural','4536303','190347','49671','19399','387350','8810','2410'),
(';STATE - ASSAM  18;',';Urban;',';389 088;389088;',';18 905;18905;',';27 090;27090;',';11 562;11562;',';503 712;503712;',';23 629;23629;',';718;718;'),;('STATE - ASSAM  18','Urban','389088','18905','27090','11562','503712','23629','718'),
(';STATE - BIHAR  10;',';Rural;',';12 768 815;12768815;',';86 920;86920;',';344 648;344648;',';35 388;35388;',';1 305 839;1305839;',';27 232;27232;',';7 064;7064;'),;('STATE - BIHAR  10','Rural','12768815','86920','344648','35388','1305839','27232','7064'),
(';STATE - BIHAR  10;',';Urban;',';621 004;621004;',';13 685;13685;',';82 412;82412;',';10 721;10721;',';948 452;948452;',';63 331;63331;',';1 016;1016;'),;('STATE - BIHAR  10','Urban','621004','13685','82412','10721','948452','63331','1016'),
(';STATE - CHHATTISGARH  22;',';Rural;',';3 591 454;3591454;',';7 716;7716;',';9 415;9415;',';149 724;149724;',';248 636;248636;',';8 881;8881;',';1 896;1896;'),;('STATE - CHHATTISGARH  22','Rural','3591454','7716','9415','149724','248636','8881','1896'),
(';STATE - CHHATTISGARH  22;',';Urban;',';353 191;353191;',';2 506;2506;',';6 200;6200;',';127 069;127069;',';423 907;423907;',';67 147;67147;',';984;984;'),;('STATE - CHHATTISGARH  22','Urban','353191','2506','6200','127069','423907','67147','984'),
(';STATE - GOA  30;',';Rural;',';105 529;105529;',';391;391;',';850;850;',';1 245;1245;',';77 329;77329;',';38 726;38726;',';613;613;'),;('STATE - GOA  30','Rural','105529','391','850','1245','77329','38726','613'),
(';STATE - GOA  30;',';Urban;',';36 384;36384;',';704;704;',';1 034;1034;',';1 393;1393;',';99 997;99997;',';93 363;93363;',';1 310;1310;'),;('STATE - GOA  30','Urban','36384','704','1034','1393','99997','93363','1310'),
(';STATE - GUJARAT  24;',';Rural;',';4 452 316;4452316;',';19 276;19276;',';33 951;33951;',';327 585;327585;',';1 819 712;1819712;',';857 525;857525;',';14 808;14808;'),;('STATE - GUJARAT  24','Rural','4452316','19276','33951','327585','1819712','857525','14808'),
(';STATE - GUJARAT  24;',';Urban;',';376 692;376692;',';13 349;13349;',';21 264;21264;',';568 100;568100;',';1 357 705;1357705;',';2 558 329;2558329;',';26 383;26383;'),;('STATE - GUJARAT  24','Urban','376692','13349','21264','568100','1357705','2558329','26383'),
(';STATE - HARYANA  06;',';Rural;',';1 916 218;1916218;',';5 375;5375;',';520 770;520770;',';35 181;35181;',';1 003 792;1003792;',';56 099;56099;',';7 049;7049;'),;('STATE - HARYANA  06','Rural','1916218','5375','520770','35181','1003792','56099','7049'),
(';STATE - HARYANA  06;',';Urban;',';220 096;220096;',';3 282;3282;',';155 829;155829;',';78 591;78591;',';976 468;976468;',';119 526;119526;',';7 999;7999;'),;('STATE - HARYANA  06','Urban','220096','3282','155829','78591','976468','119526','7999'),
(';STATE - HIMACHAL PRADESH  02;',';Rural;',';1 297 320;1297320;',';228 996;228996;',';6 528;6528;',';50 324;50324;',';571 209;571209;',';10 132;10132;',';3 830;3830;'),;('STATE - HIMACHAL PRADESH  02','Rural','1297320','228996','6528','50324','571209','10132','3830'),
(';STATE - HIMACHAL PRADESH  02;',';Urban;',';28 127;28127;',';7 030;7030;',';1 518;1518;',';1 879;1879;',';192 280;192280;',';9 034;9034;',';715;715;'),;('STATE - HIMACHAL PRADESH  02','Urban','28127','7030','1518','1879','192280','9034','715'),
(';STATE - JAMMU & KASHMIR  01;',';Rural;',';1 555 302;1555302;',';151 794;151794;',';9 660;9660;',';8 926;8926;',';391 929;391929;',';4 661;4661;',';3 214;3214;'),;('STATE - JAMMU & KASHMIR  01','Rural','1555302','151794','9660','8926','391929','4661','3214'),
(';STATE - JAMMU & KASHMIR  01;',';Urban;',';130 680;130680;',';20 299;20299;',';5 125;5125;',';3 239;3239;',';464 219;464219;',';17 996;17996;',';1 508;1508;'),;('STATE - JAMMU & KASHMIR  01','Urban','130680','20299','5125','3239','464219','17996','1508'),
(';STATE - JHARKHAND  20;',';Rural;',';3 801 701;3801701;',';6 243;6243;',';48 437;48437;',';6 281;6281;',';619 037;619037;',';4 861;4861;',';2 647;2647;'),;('STATE - JHARKHAND  20','Rural','3801701','6243','48437','6281','619037','4861','2647'),
(';STATE - JHARKHAND  20;',';Urban;',';339 473;339473;',';6 704;6704;',';27 843;27843;',';4 361;4361;',';935 525;935525;',';34 438;34438;',';971;971;'),;('STATE - JHARKHAND  20','Urban','339473','6704','27843','4361','935525','34438','971'),
(';STATE - KARNATAKA  29;',';Rural;',';4 910 985;4910985;',';41 439;41439;',';41 400;41400;',';1 418 565;1418565;',';2 407 358;2407358;',';132 880;132880;',';45 854;45854;'),;('STATE - KARNATAKA  29','Rural','4910985','41439','41400','1418565','2407358','132880','45854'),
(';STATE - KARNATAKA  29;',';Urban;',';534 482;534482;',';17 031;17031;',';23 660;23660;',';853 468;853468;',';2 467 362;2467362;',';912 206;912206;',';23 406;23406;'),;('STATE - KARNATAKA  29','Urban','534482','17031','23660','853468','2467362','912206','23406'),
(';STATE - KERALA  32;',';Rural;',';1 791 236;1791236;',';21 667;21667;',';53 279;53279;',';80 733;80733;',';4 505 922;4505922;',';392 957;392957;',';48 982;48982;'),;('STATE - KERALA  32','Rural','1791236','21667','53279','80733','4505922','392957','48982'),
(';STATE - KERALA  32;',';Urban;',';284 427;284427;',';5 094;5094;',';22 466;22466;',';17 821;17821;',';1 716 511;1716511;',';378 387;378387;',';37 392;37392;'),;('STATE - KERALA  32','Urban','284427','5094','22466','17821','1716511','378387','37392'),
(';STATE - MADHYA PRADESH  23;',';Rural;',';9 209 664;9209664;',';18 594;18594;',';45 042;45042;',';321 367;321367;',';654 200;654200;',';131 912;131912;',';11 758;11758;'),;('STATE - MADHYA PRADESH  23','Rural','9209664','18594','45042','321367','654200','131912','11758'),
(';STATE - MADHYA PRADESH  23;',';Urban;',';1 103 837;1103837;',';12 342;12342;',';25 222;25222;',';512 506;512506;',';1 349 038;1349038;',';615 130;615130;',';8 734;8734;'),;('STATE - MADHYA PRADESH  23','Urban','1103837','12342','25222','512506','1349038','615130','8734'),
(';STATE - MAHARASHTRA  27;',';Rural;',';10 777 153;10777153;',';64 916;64916;',';105 431;105431;',';533 788;533788;',';1 126 947;1126947;',';1 658 651;1658651;',';142 109;142109;'),;('STATE - MAHARASHTRA  27','Rural','10777153','64916','105431','533788','1126947','1658651','142109'),
(';STATE - MAHARASHTRA  27;',';Urban;',';1 412 513;1412513;',';48 147;48147;',';74 552;74552;',';551 808;551808;',';2 530 113;2530113;',';6 316 465;6316465;',';258 796;258796;'),;('STATE - MAHARASHTRA  27','Urban','1412513','48147','74552','551808','2530113','6316465','258796'),
(';STATE - MANIPUR  14;',';Rural;',';286 826;286826;',';48 365;48365;',';2 112;2112;',';1 671;1671;',';22 342;22342;',';586;586;',';127;127;'),;('STATE - MANIPUR  14','Rural','286826','48365','2112','1671','22342','586','127'),
(';STATE - MANIPUR  14;',';Urban;',';92 392;92392;',';2 604;2604;',';2 237;2237;',';1 344;1344;',';30 153;30153;',';1 426;1426;',';186;186;'),;('STATE - MANIPUR  14','Urban','92392','2604','2237','1344','30153','1426','186'),
(';STATE - MEGHALAYA  17;',';Rural;',';173 749;173749;',';167 671;167671;',';1 588;1588;',';1 209;1209;',';55 987;55987;',';370;370;',';818;818;'),;('STATE - MEGHALAYA  17','Rural','173749','167671','1588','1209','55987','370','818'),
(';STATE - MEGHALAYA  17;',';Urban;',';16 345;16345;',';40 313;40313;',';431;431;',';792;792;',';59 981;59981;',';1 020;1020;',';328;328;'),;('STATE - MEGHALAYA  17','Urban','16345','40313','431','792','59981','1020','328'),
(';STATE - MIZORAM  15;',';Rural;',';7 330;7330;',';76 349;76349;',';83;83;',';106;106;',';7 142;7142;',';4;4;',';174;174;'),;('STATE - MIZORAM  15','Rural','7330','76349','83','106','7142','4','174'),
(';STATE - MIZORAM  15;',';Urban;',';7 194;7194;',';56 040;56040;',';164;164;',';105;105;',';34 948;34948;',';249;249;',';181;181;'),;('STATE - MIZORAM  15','Urban','7194','56040','164','105','34948','249','181'),
(';STATE - NAGALAND  13;',';Rural;',';187 841;187841;',';68 061;68061;',';1 573;1573;',';1 379;1379;',';35 331;35331;',';551;551;',';182;182;'),;('STATE - NAGALAND  13','Rural','187841','68061','1573','1379','35331','551','182'),
(';STATE - NAGALAND  13;',';Urban;',';25 835;25835;',';13 717;13717;',';577;577;',';391;391;',';43 670;43670;',';1 181;1181;',';56;56;'),;('STATE - NAGALAND  13','Urban','25835','13717','577','391','43670','1181','56'),
(';STATE - ORISSA  21;',';Rural;',';6 507 071;6507071;',';72 064;72064;',';78 575;78575;',';39 601;39601;',';1 661 232;1661232;',';13 539;13539;',';6 425;6425;'),;('STATE - ORISSA  21','Rural','6507071','72064','78575','39601','1661232','13539','6425'),
(';STATE - ORISSA  21;',';Urban;',';391 466;391466;',';35 953;35953;',';16 897;16897;',';6 799;6799;',';992 842;992842;',';48 400;48400;',';2 165;2165;'),;('STATE - ORISSA  21','Urban','391466','35953','16897','6799','992842','48400','2165'),
(';STATE - PUNJAB  03;',';Rural;',';1 907 982;1907982;',';6 549;6549;',';655 972;655972;',';104 777;104777;',';1 063 286;1063286;',';59 930;59930;',';6 579;6579;'),;('STATE - PUNJAB  03','Rural','1907982','6549','655972','104777','1063286','59930','6579'),
(';STATE - PUNJAB  03;',';Urban;',';288 532;288532;',';5 585;5585;',';342 473;342473;',';283 772;283772;',';1 149 899;1149899;',';81 937;81937;',';10 203;10203;'),;('STATE - PUNJAB  03','Urban','288532','5585','342473','283772','1149899','81937','10203'),
(';STATE - RAJASTHAN  08;',';Rural;',';5 634 567;5634567;',';17 450;17450;',';133 296;133296;',';879 243;879243;',';2 892 857;2892857;',';124 357;124357;',';55 774;55774;'),;('STATE - RAJASTHAN  08','Rural','5634567','17450','133296','879243','2892857','124357','55774'),
(';STATE - RAJASTHAN  08;',';Urban;',';358 679;358679;',';6 368;6368;',';75 403;75403;',';676 792;676792;',';1 704 100;1704100;',';353 253;353253;',';25 594;25594;'),;('STATE - RAJASTHAN  08','Urban','358679','6368','75403','676792','1704100','353253','25594'),
(';STATE - SIKKIM  11;',';Rural;',';44 708;44708;',';24 060;24060;',';204;204;',';2 225;2225;',';38 078;38078;',';475;475;',';205;205;'),;('STATE - SIKKIM  11','Rural','44708','24060','204','2225','38078','475','205'),
(';STATE - SIKKIM  11;',';Urban;',';637;637;',';1 039;1039;',';25;25;',';56;56;',';16 250;16250;',';876;876;',';5;5;'),;('STATE - SIKKIM  11','Urban','637','1039','25','56','16250','876','5'),
(';STATE - TAMIL NADU  33;',';Rural;',';4 178 613;4178613;',';12 476;12476;',';181 770;181770;',';44 746;44746;',';5 095 522;5095522;',';199 742;199742;',';11 842;11842;'),;('STATE - TAMIL NADU  33','Rural','4178613','12476','181770','44746','5095522','199742','11842'),
(';STATE - TAMIL NADU  33;',';Urban;',';955 203;955203;',';9 546;9546;',';148 668;148668;',';31 472;31472;',';5 024 425;5024425;',';1 080 325;1080325;',';22 254;22254;'),;('STATE - TAMIL NADU  33','Urban','955203','9546','148668','31472','5024425','1080325','22254'),
(';STATE - TRIPURA  16;',';Rural;',';618 452;618452;',';30 644;30644;',';11 307;11307;',';831;831;',';39 045;39045;',';674;674;',';202;202;'),;('STATE - TRIPURA  16','Rural','618452','30644','11307','831','39045','674','202'),
(';STATE - TRIPURA  16;',';Urban;',';83 829;83829;',';1 220;1220;',';7 774;7774;',';737;737;',';66 737;66737;',';1 638;1638;',';93;93;'),;('STATE - TRIPURA  16','Urban','83829','1220','7774','737','66737','1638','93'),
(';STATE - UTTAR PRADESH  09;',';Rural;',';23 548 929;23548929;',';82 547;82547;',';1 135 947;1135947;',';97 578;97578;',';2 180 738;2180738;',';115 504;115504;',';17 740;17740;'),;('STATE - UTTAR PRADESH  09','Rural','23548929','82547','1135947','97578','2180738','115504','17740'),
(';STATE - UTTAR PRADESH  09;',';Urban;',';1 766 174;1766174;',';31 881;31881;',';827 258;827258;',';144 213;144213;',';3 924 493;3924493;',';416 239;416239;',';12 214;12214;'),;('STATE - UTTAR PRADESH  09','Urban','1766174','31881','827258','144213','3924493','416239','12214'),
(';STATE - UTTARANCHAL  05;',';Rural;',';1 389 703;1389703;',';52 751;52751;',';21 658;21658;',';71 481;71481;',';461 179;461179;',';12 953;12953;',';2 905;2905;'),;('STATE - UTTARANCHAL  05','Rural','1389703','52751','21658','71481','461179','12953','2905'),
(';STATE - UTTARANCHAL  05;',';Urban;',';75 802;75802;',';3 384;3384;',';12 336;12336;',';5 481;5481;',';404 278;404278;',';51 714;51714;',';657;657;'),;('STATE - UTTARANCHAL  05','Urban','75802','3384','12336','5481','404278','51714','657'),
(';STATE - WEST BENGAL  19;',';Rural;',';11 441 120;11441120;',';151 907;151907;',';415 797;415797;',';50 849;50849;',';2 307 003;2307003;',';30 558;30558;',';16 077;16077;'),;('STATE - WEST BENGAL  19','Rural','11441120','151907','415797','50849','2307003','30558','16077'),
(';STATE - WEST BENGAL  19;',';Urban;',';1 245 696;1245696;',';59 323;59323;',';194 141;194141;',';29 636;29636;',';3 872 338;3872338;',';318 914;318914;',';6 798;6798;'),;('STATE - WEST BENGAL  19','Urban','1245696','59323','194141','29636','3872338','318914','6798'),
(';UNION TERRITORY - ANDAMAN & NICOBAR ISLANDS  35;',';Rural;',';34 822;34822;',';5 077;5077;',';121;121;',';181;181;',';31 392;31392;',';91;91;',';152;152;'),;('UNION TERRITORY - ANDAMAN & NICOBAR ISLANDS  35','Rural','34822','5077','121','181','31392','91','152'),
(';UNION TERRITORY - ANDAMAN & NICOBAR ISLANDS  35;',';Urban;',';2 660;2660;',';1 478;1478;',';136;136;',';108;108;',';27 636;27636;',';343;343;',';25;25;'),;('UNION TERRITORY - ANDAMAN & NICOBAR ISLANDS  35','Urban','2660','1478','136','108','27636','343','25'),
(';UNION TERRITORY - CHANDIGARH  04;',';Rural;',';2 605;2605;',';52;52;',';1 265;1265;',';118;118;',';22 095;22095;',';269;269;',';24;24;'),;('UNION TERRITORY - CHANDIGARH  04','Rural','2605','52','1265','118','22095','269','24'),
(';UNION TERRITORY - CHANDIGARH  04;',';Urban;',';23 578;23578;',';279;279;',';4 111;4111;',';5 703;5703;',';160 327;160327;',';20 269;20269;',';3 439;3439;'),;('UNION TERRITORY - CHANDIGARH  04','Urban','23578','279','4111','5703','160327','20269','3439'),
(';UNION TERRITORY - DADRA & NAGAR HAVELI  26;',';Rural;',';25 886;25886;',';36;36;',';295;295;',';404;404;',';8 108;8108;',';6 086;6086;',';109;109;'),;('UNION TERRITORY - DADRA & NAGAR HAVELI  26','Rural','25886','36','295','404','8108','6086','109'),
(';UNION TERRITORY - DADRA & NAGAR HAVELI  26;',';Urban;',';2 391;2391;',';31;31;',';166;166;',';481;481;',';5 950;5950;',';7 381;7381;',';179;179;'),;('UNION TERRITORY - DADRA & NAGAR HAVELI  26','Urban','2391','31','166','481','5950','7381','179'),
(';UNION TERRITORY - DAMAN & DIU  25;',';Rural;',';5 494;5494;',';88;88;',';77;77;',';308;308;',';21 840;21840;',';6 453;6453;',';55;55;'),;('UNION TERRITORY - DAMAN & DIU  25','Rural','5494','88','77','308','21840','6453','55'),
(';UNION TERRITORY - DAMAN & DIU  25;',';Urban;',';787;787;',';81;81;',';102;102;',';542;542;',';8 978;8978;',';9 032;9032;',';65;65;'),;('UNION TERRITORY - DAMAN & DIU  25','Urban','787','81','102','542','8978','9032','65'),
(';UNION TERRITORY - DELHI  07;',';Rural;',';47 809;47809;',';311;311;',';24 879;24879;',';4 947;4947;',';147 382;147382;',';18 494;18494;',';866;866;'),;('UNION TERRITORY - DELHI  07','Rural','47809','311','24879','4947','147382','18494','866'),
(';UNION TERRITORY - DELHI  07;',';Urban;',';213 832;213832;',';4 790;4790;',';120 231;120231;',';92 931;92931;',';2 266 101;2266101;',';427 073;427073;',';10 310;10310;'),;('UNION TERRITORY - DELHI  07','Urban','213832','4790','120231','92931','2266101','427073','10310'),
(';UNION TERRITORY - LAKSHADWEEP  31;',';Rural;',';1 390;1390;',';1;1;',';12;12;',';3;3;',';7 759;7759;',';261;261;',';33;33;'),;('UNION TERRITORY - LAKSHADWEEP  31','Rural','1390','1','12','3','7759','261','33'),
(';UNION TERRITORY - LAKSHADWEEP  31;',';Urban;',';753;753;',';2;2;',';9;9;',';4;4;',';5 830;5830;',';338;338;',';212;212;'),;('UNION TERRITORY - LAKSHADWEEP  31','Urban','753','2','9','4','5830','338','212'),
(';UNION TERRITORY - PONDICHERRY  34;',';Rural;',';36 591;36591;',';88;88;',';600;600;',';227;227;',';49 992;49992;',';2 440;2440;',';41;41;'),;('UNION TERRITORY - PONDICHERRY  34','Rural','36591','88','600','227','49992','2440','41'),
(';UNION TERRITORY - PONDICHERRY  34;',';Urban;',';25 155;25155;',';203;203;',';928;928;',';428;428;',';120 156;120156;',';29 677;29677;',';680;680;'),;('UNION TERRITORY - PONDICHERRY  34','Urban','25155','203','928','428','120156','29677','680'),
